// HTTP 200 OK
// Allow: GET, POST, HEAD, OPTIONS
// Content-Type: application/json
// Vary: Accept

{
  "count": 7860,
  "next": "http://54.187.193.156/bills/?page=2",
  "previous": null,
  "results": [
    {
      "id": 2419,
      "created_on": "2017-12-19T20:32:13+0000",
      "last_modified": "2017-12-19T20:32:13+0000",
      "hash_id": "e893950d-373b-4a85-9d4a-95b8962c0082",
      "number": "hconres1-115",
      "title": "Regarding consent to assemble outside the seat of government.",
      "description": "<p>(This measure has not been amended since it was introduced. The summary of that version is repeated here.)</p> <p>Authorizes the Speaker of the House and the Majority Leader of the Senate, or their respective designees, to notify the Members of the House and the Senate to assemble at a place outside the District of Columbia whenever, in their opinion, the public interest shall warrant it.</p>",
      "status": null,
      "closing_date": null,
      "bill_created_date": null,
      "bill_modified_date": null,
      "is_default": null,
      "chamber": "House",
      "introduced_date": null,
      "bill_result": null,
      "sponser": null,
      "attached_rollcall": null
    },
    {
      "id": 2420,
      "created_on": "2017-12-19T20:32:14+0000",
      "last_modified": "2017-12-19T20:32:14+0000",
      "hash_id": "fa19dec5-4d7e-4581-a5f1-f3b9e3401a6c",
      "number": "hconres10-115",
      "title": "Expressing the sense of the Congress that tax-exempt fraternal benefit societies have historically and continue to provide critical benefits to Americans and United States communities.",
      "description": "",
      "status": null,
      "closing_date": null,
      "bill_created_date": null,
      "bill_modified_date": null,
      "is_default": null,
      "chamber": "House",
      "introduced_date": null,
      "bill_result": null,
      "sponser": null,
      "attached_rollcall": null
    },
    {
      "id": 2421,
      "created_on": "2017-12-19T20:32:15+0000",
      "last_modified": "2017-12-19T20:32:15+0000",
      "hash_id": "a8bf47d6-b54c-4666-b05a-7952bdbd0611",
      "number": "hconres12-115",
      "title": "Supporting the designation of the week of September 11 to September 17 as \"Patriot Week\".",
      "description": "",
      "status": null,
      "closing_date": null,
      "bill_created_date": null,
      "bill_modified_date": null,
      "is_default": null,
      "chamber": "House",
      "introduced_date": null,
      "bill_result": null,
      "sponser": null,
      "attached_rollcall": null
    },
    {
      "id": 2422,
      "created_on": "2017-12-19T20:32:15+0000",
      "last_modified": "2017-12-19T20:32:15+0000",
      "hash_id": "b4e65fa5-bc5b-4ec1-9490-5f345669881c",
      "number": "hconres13-115",
      "title": "Supporting the Local Radio Freedom Act.",
      "description": "",
      "status": null,
      "closing_date": null,
      "bill_created_date": null,
      "bill_modified_date": null,
      "is_default": null,
      "chamber": "House",
      "introduced_date": null,
      "bill_result": null,
      "sponser": null,
      "attached_rollcall": null
    },
    {
      "id": 2423,
      "created_on": "2017-12-19T20:32:15+0000",
      "last_modified": "2017-12-19T20:32:15+0000",
      "hash_id": "f2659be7-678d-4a35-a76a-66fceaad46a2",
      "number": "hconres14-115",
      "title": "Reclaiming Congress's Constitutional Mandate in Trade Resolution",
      "description": "",
      "status": null,
      "closing_date": null,
      "bill_created_date": null,
      "bill_modified_date": null,
      "is_default": null,
      "chamber": "House",
      "introduced_date": null,
      "bill_result": null,
      "sponser": null,
      "attached_rollcall": null
    },
    {
      "id": 2424,
      "created_on": "2017-12-19T20:32:16+0000",
      "last_modified": "2017-12-19T20:32:16+0000",
      "hash_id": "e81a4ab2-e9d2-486b-9da2-a20324d53bed",
      "number": "hconres16-115",
      "title": "Expressing the sense of Congress that a commemorative postage stamp should be issued in honor of the Buffalo Soldiers.",
      "description": "",
      "status": null,
      "closing_date": null,
      "bill_created_date": null,
      "bill_modified_date": null,
      "is_default": null,
      "chamber": "House",
      "introduced_date": null,
      "bill_result": null,
      "sponser": null,
      "attached_rollcall": null
    },
    {
      "id": 2425,
      "created_on": "2017-12-19T20:32:16+0000",
      "last_modified": "2017-12-19T20:32:16+0000",
      "hash_id": "5722e288-ffdb-4d1c-bafe-1fc0d0989a94",
      "number": "hconres17-115",
      "title": "Original NAACP Resolution of 2017",
      "description": "",
      "status": null,
      "closing_date": null,
      "bill_created_date": null,
      "bill_modified_date": null,
      "is_default": null,
      "chamber": "House",
      "introduced_date": null,
      "bill_result": null,
      "sponser": null,
      "attached_rollcall": null
    },
    {
      "id": 2426,
      "created_on": "2017-12-19T20:32:17+0000",
      "last_modified": "2017-12-19T20:32:17+0000",
      "hash_id": "48999cff-ede7-4a24-b991-0d66939adbb7",
      "number": "hconres18-115",
      "title": "Permitting the use of the rotunda of the Capitol for a ceremony as part of the commemoration of the days of remembrance of victims of the Holocaust.",
      "description": "<p>(This measure has not been amended since it was introduced. The summary of that version is repeated here.)</p> <p>Authorizes the use of the Capitol rotunda on April 25, 2017, for a ceremony as part of the commemoration of the days of remembrance of victims of the Holocaust.</p>",
      "status": null,
      "closing_date": null,
      "bill_created_date": null,
      "bill_modified_date": null,
      "is_default": null,
      "chamber": "House",
      "introduced_date": null,
      "bill_result": null,
      "sponser": null,
      "attached_rollcall": null
    },
    {
      "id": 2427,
      "created_on": "2017-12-19T20:32:17+0000",
      "last_modified": "2017-12-19T20:32:17+0000",
      "hash_id": "2d594829-bcbe-49cc-ae07-d004958c9217",
      "number": "hconres2-115",
      "title": "Authorization for Use of Military Force Against the Islamic State of Iraq and the Levant and its Associated Forces",
      "description": "",
      "status": null,
      "closing_date": null,
      "bill_created_date": null,
      "bill_modified_date": null,
      "is_default": null,
      "chamber": "House",
      "introduced_date": null,
      "bill_result": null,
      "sponser": null,
      "attached_rollcall": null
    },
    {
      "id": 2428,
      "created_on": "2017-12-19T20:32:18+0000",
      "last_modified": "2017-12-19T20:32:18+0000",
      "hash_id": "30372c21-72ba-4cb7-945e-d959a65d0365",
      "number": "hconres20-115",
      "title": "Expressing the sense of the House of Representatives regarding the execution-style murders of United States citizens Ylli, Agron, and Mehmet Bytyqi in the Republic of Serbia in July 1999.",
      "description": "",
      "status": null,
      "closing_date": null,
      "bill_created_date": null,
      "bill_modified_date": null,
      "is_default": null,
      "chamber": "House",
      "introduced_date": null,
      "bill_result": null,
      "sponser": null,
      "attached_rollcall": null
    }
  ]
}